{
  "abd_services": [
    {
      "AppIcon": "aboutsscdl",
      "AppId": 1,
      "AppName": "Water Supply Management, Quality & Water Recharging",
      "IsActive": 1
    },
    {
      "AppIcon": "aboutsscdl",
      "AppId": 2,
      "AppName": "Sewerage - Recycle & Reuse and Storm Water",
      "IsActive": 1
    },
    {
      "AppIcon": "aboutsscdl",
      "AppId": 3,
      "AppName": "Renewable Energy Sources (Solar, Wind & Biogas) & Street Light",
      "IsActive": 1
    },
    {
      "AppIcon": "aboutsscdl",
      "AppId": 4,
      "AppName": "Smart Parking (Mechanized)",
      "IsActive": 1
    },
    {
      "AppIcon": "aboutsscdl",
      "AppId": 5,
      "AppName": "Skywalk (Travellator)",
      "IsActive": 1
    },
    {
      "AppIcon": "aboutsscdl",
      "AppId": 6,
      "AppName": "Visual Improvement in area",
      "IsActive": 1
    },
    {
      "AppIcon": "aboutsscdl",
      "AppId": 7,
      "AppName": "Logistics Park",
      "IsActive": 1
    },
    {
      "AppIcon": "aboutsscdl",
      "AppId": 8,
      "AppName": "Incubation/Start up centre",
      "IsActive": 1
    },
    {
      "AppIcon": "aboutsscdl",
      "AppId": 9,
      "AppName": "Housing & Inclusiveness (Affordable Housing)",
      "IsActive": 1
    }
  ]
}
